{
  "code": 200,
  "meta": {
    "pagination": {
      "total": 1317,
      "pages": 66,
      "page": 1,
      "limit": 20
    }
  },
  "data": [
    {
      "id": 121,
      "name": "Bhooshit Ganaka",
      "email": "ganaka_bhooshit@kiehn-nicolas.info",
      "gender": "Male",
      "status": "Inactive",
      "created_at": "2021-03-26T03:50:05.623+05:30",
      "updated_at": "2021-03-26T03:50:05.623+05:30"
    },
    {
      "id": 122,
      "name": "Satish Joshi Ret.",
      "email": "satish_ret_joshi@rath-wilkinson.name",
      "gender": "Male",
      "status": "Inactive",
      "created_at": "2021-03-26T03:50:05.641+05:30",
      "updated_at": "2021-03-26T03:50:05.641+05:30"
    },
    {
      "id": 124,
      "name": "Chanda Somayaji",
      "email": "somayaji_chanda@abernathy.info",
      "gender": "Male",
      "status": "Inactive",
      "created_at": "2021-03-26T03:50:05.674+05:30",
      "updated_at": "2021-03-26T03:50:05.674+05:30"
    },
    {
      "id": 125,
      "name": "Mangala Panicker",
      "email": "panicker_mangala@maggio.io",
      "gender": "Male",
      "status": "Active",
      "created_at": "2021-03-26T03:50:05.693+05:30",
      "updated_at": "2021-03-26T03:50:05.693+05:30"
    },
    {
      "id": 126,
      "name": "The Hon. Swapnil Reddy",
      "email": "the_reddy_swapnil_hon@orn.biz",
      "gender": "Male",
      "status": "Active",
      "created_at": "2021-03-26T03:50:05.705+05:30",
      "updated_at": "2021-03-26T03:50:05.705+05:30"
    },
    {
      "id": 127,
      "name": "Meghnad Reddy",
      "email": "reddy_meghnad@haag.biz",
      "gender": "Male",
      "status": "Active",
      "created_at": "2021-03-26T03:50:05.715+05:30",
      "updated_at": "2021-03-26T03:50:05.715+05:30"
    },
    {
      "id": 128,
      "name": "Dhanalakshmi Johar II",
      "email": "johar_ii_dhanalakshmi@gibson.info",
      "gender": "Female",
      "status": "Active",
      "created_at": "2021-03-26T03:50:05.746+05:30",
      "updated_at": "2021-03-26T03:50:05.746+05:30"
    },
    {
      "id": 129,
      "name": "Manjusha Gill DC",
      "email": "gill_manjusha_dc@gutkowski-schowalter.com",
      "gender": "Female",
      "status": "Inactive",
      "created_at": "2021-03-26T03:50:05.756+05:30",
      "updated_at": "2021-03-26T03:50:05.756+05:30"
    },
    {
      "id": 130,
      "name": "Tanushri Mishra Jr.",
      "email": "tanushri_jr_mishra@dubuque.name",
      "gender": "Male",
      "status": "Active",
      "created_at": "2021-03-26T03:50:05.762+05:30",
      "updated_at": "2021-03-26T03:50:05.762+05:30"
    },
    {
      "id": 131,
      "name": "Chandrani Kaur LLD",
      "email": "kaur_lld_chandrani@braun.name",
      "gender": "Male",
      "status": "Active",
      "created_at": "2021-03-26T03:50:05.770+05:30",
      "updated_at": "2021-03-26T03:50:05.770+05:30"
    },
    {
      "id": 132,
      "name": "Gemine Guha",
      "email": "gemine_guha@kulas-walter.net",
      "gender": "Female",
      "status": "Inactive",
      "created_at": "2021-03-26T03:50:05.789+05:30",
      "updated_at": "2021-03-26T03:50:05.789+05:30"
    },
    {
      "id": 134,
      "name": "Bhagavaan Nayar",
      "email": "bhagavaan_nayar@waelchi.com",
      "gender": "Female",
      "status": "Inactive",
      "created_at": "2021-03-26T03:50:05.814+05:30",
      "updated_at": "2021-03-26T03:50:05.814+05:30"
    },
    {
      "id": 135,
      "name": "Drona Ahuja Jr.",
      "email": "jr_drona_ahuja@stracke.co",
      "gender": "Male",
      "status": "Inactive",
      "created_at": "2021-03-26T03:50:05.820+05:30",
      "updated_at": "2021-03-26T03:50:05.820+05:30"
    },
    {
      "id": 136,
      "name": "Chinmayanand Varman",
      "email": "varman_chinmayanand@rohan.biz",
      "gender": "Female",
      "status": "Inactive",
      "created_at": "2021-03-26T03:50:05.854+05:30",
      "updated_at": "2021-03-26T03:50:05.854+05:30"
    },
    {
      "id": 137,
      "name": "Balaaditya Jha",
      "email": "jha_balaaditya@collier.org",
      "gender": "Female",
      "status": "Active",
      "created_at": "2021-03-26T03:50:05.875+05:30",
      "updated_at": "2021-03-26T03:50:05.875+05:30"
    },
    {
      "id": 138,
      "name": "Deven Banerjee",
      "email": "deven_banerjee@hills-armstrong.net",
      "gender": "Male",
      "status": "Inactive",
      "created_at": "2021-03-26T03:50:05.886+05:30",
      "updated_at": "2021-03-26T03:50:05.886+05:30"
    },
    {
      "id": 139,
      "name": "Avantika Saini V",
      "email": "v_saini_avantika@becker.net",
      "gender": "Male",
      "status": "Active",
      "created_at": "2021-03-26T03:50:05.897+05:30",
      "updated_at": "2021-03-26T03:50:05.897+05:30"
    },
    {
      "id": 140,
      "name": "Chiranjeeve Somayaji",
      "email": "chiranjeeve_somayaji@fay.io",
      "gender": "Male",
      "status": "Active",
      "created_at": "2021-03-26T03:50:05.916+05:30",
      "updated_at": "2021-03-26T03:50:05.916+05:30"
    },
    {
      "id": 141,
      "name": "Msgr. Vasudha Khanna",
      "email": "khanna_vasudha_msgr@gibson.org",
      "gender": "Male",
      "status": "Active",
      "created_at": "2021-03-26T03:50:05.926+05:30",
      "updated_at": "2021-03-26T03:50:05.926+05:30"
    },
    {
      "id": 142,
      "name": "Sushma Adiga",
      "email": "sushma_adiga@stamm.info",
      "gender": "Female",
      "status": "Inactive",
      "created_at": "2021-03-26T03:50:05.955+05:30",
      "updated_at": "2021-03-26T03:50:05.955+05:30"
    }
  ]
}